﻿:Home Action:Index Date: 12/28/2020 8:20:27 PM
OnActionExecuted Controller:Home Action:Index Date: 12/28/2020 8:20:27 PM
OnActionExecuting Controller:Home Action:Index Date: 12/28/2020 8:21:38 PM
OnActionExecuted Controller:Home Action:Index Date: 12/28/2020 8:21:38 PM
OnActionExecuting Controller:Home Action:Index Date: 12/28/2020 8:22:34 PM
OnActionExecuted Controller:Home Action:Index Date: 12/28/2020 8:22:35 PM
